<?xml version="1.0" encoding="utf-8"?>
<!-- Generator: Adobe Illustrator 19.2.0, SVG Export Plug-In . SVG Version: 6.00 Build 0)  -->
<svg version="1.1" id="Layer_1" xmlns="http://www.w3.org/2000/svg" xmlns:xlink="http://www.w3.org/1999/xlink" x="0px" y="0px"
	 viewBox="0 0 27 44" style="enable-background:new 0 0 27 44;" xml:space="preserve">
<style type="text/css">
	.st0{fill:#6A4B77;}
</style>
<path class="st0" d="M0,22L22,0l2.1,2.1L4.2,22l19.9,19.9L22,44L0,22L0,22L0,22z"/>
</svg>
